[
{
  "pk": 1, 
  "model": "protected_areas.rnr",
  "fields": {
    "code": 77, 
    "name": "Gorges de la Loire"
  }
},
{
  "pk": 2, 
  "model": "protected_areas.rnr",
  "fields": {
    "code": 75, 
    "name": "Jasseries de Colleigne"
  }
},
{
  "pk": 1, 
  "model": "protected_areas.administrateurrnr",
  "fields": {
    "commune": 1, 
    "name": "F\u00e9d\u00e9ration Rh\u00f4ne-Alpes de Protection de la Nature de la Loire", 
    "short_name": "FRAPNA", 
    "address": "Maison de la R\u00e9serve Condamine", 
    "rnr": 1, 
    "email": "pauline.cabaret@frapna.org"
  }
},
{
  "pk": 2, 
  "model": "protected_areas.administrateurrnr",
  "fields": {
    "commune": 1, 
    "name": "Conservatoire d\u2019Espaces Naturels Rh\u00f4ne-Alpes", 
    "short_name": "CENRA", 
    "address": "CENRA La maison forte 2 rue des Valli\u00e8res", 
    "rnr": 2, 
    "email": "sebastien.barthel@espaces-naturels.fr"
  }
}
]
